<mxfile host="65bd71144e">
    <diagram id="kNfy0v-19uisM76R8B6v" name="Page-1">
        <mxGraphModel dx="366" dy="263" grid="0" gridSize="10" guides="1" tooltips="1" connect="1" arrows="1" fold="1" page="1" pageScale="1" pageWidth="3300" pageHeight="4681" background="#ffffff" math="0" shadow="0">
            <root>
                <mxCell id="0"/>
                <mxCell id="1" parent="0"/>
                <mxCell id="2" value="Contacto" style="swimlane;fontStyle=1;align=center;verticalAlign=top;childLayout=stackLayout;horizontal=1;startSize=26;horizontalStack=0;resizeParent=1;resizeParentMax=0;resizeLast=0;collapsible=1;marginBottom=0;fontColor=#ffffff;fillColor=#0050ef;strokeColor=#001DBC;" parent="1" vertex="1">
                    <mxGeometry x="448" y="209" width="169" height="208" as="geometry">
                        <mxRectangle x="210" y="300" width="80" height="26" as="alternateBounds"/>
                    </mxGeometry>
                </mxCell>
                <mxCell id="3" value="- n : N&#10;- fn : String&#10;- org : String&#10;- title : String&#10;- tel : LinkedList&lt;Telefono&gt;&#10;- adr : LinkedList&lt;Direccion&gt;&#10;- email : LinkedList&lt;Email&gt;&#10;- int id;" style="text;fillColor=none;align=left;verticalAlign=top;spacingLeft=4;spacingRight=4;overflow=hidden;rotatable=0;points=[[0,0.5],[1,0.5]];portConstraint=eastwest;fontColor=#000000;strokeColor=#0000FF;" parent="2" vertex="1">
                    <mxGeometry y="26" width="169" height="131" as="geometry"/>
                </mxCell>
                <mxCell id="5" value="+ hashcode ( ) : int&#10;+ equals ( ) : boolean&#10;+ toString ( ) : void" style="text;strokeColor=none;align=left;verticalAlign=top;spacingLeft=4;spacingRight=4;overflow=hidden;rotatable=0;points=[[0,0.5],[1,0.5]];portConstraint=eastwest;fontColor=#000000;" parent="2" vertex="1">
                    <mxGeometry y="157" width="169" height="51" as="geometry"/>
                </mxCell>
                <mxCell id="6" value="Email" style="swimlane;fontStyle=1;align=center;verticalAlign=top;childLayout=stackLayout;horizontal=1;startSize=26;horizontalStack=0;resizeParent=1;resizeParentMax=0;resizeLast=0;collapsible=1;marginBottom=0;fontColor=#ffffff;fillColor=#0050ef;strokeColor=#001DBC;" parent="1" vertex="1">
                    <mxGeometry x="512" y="579" width="142" height="140" as="geometry"/>
                </mxCell>
                <mxCell id="7" value="- email : String&#10;- type : String" style="text;fillColor=none;align=left;verticalAlign=top;spacingLeft=4;spacingRight=4;overflow=hidden;rotatable=0;points=[[0,0.5],[1,0.5]];portConstraint=eastwest;fontColor=#000000;strokeColor=#0000FF;" parent="6" vertex="1">
                    <mxGeometry y="26" width="142" height="44" as="geometry"/>
                </mxCell>
                <mxCell id="9" value="+ hashcode ( ) : int&#10;+ equals ( ) : boolean&#10;+ toString ( ) : void" style="text;strokeColor=none;fillColor=none;align=left;verticalAlign=top;spacingLeft=4;spacingRight=4;overflow=hidden;rotatable=0;points=[[0,0.5],[1,0.5]];portConstraint=eastwest;fontColor=#000000;" parent="6" vertex="1">
                    <mxGeometry y="70" width="142" height="70" as="geometry"/>
                </mxCell>
                <mxCell id="10" value="Telefono" style="swimlane;fontStyle=1;align=center;verticalAlign=top;childLayout=stackLayout;horizontal=1;startSize=26;horizontalStack=0;resizeParent=1;resizeParentMax=0;resizeLast=0;collapsible=1;marginBottom=0;fontColor=#ffffff;fillColor=#0050ef;strokeColor=#001DBC;" parent="1" vertex="1">
                    <mxGeometry x="293" y="567" width="135" height="128" as="geometry"/>
                </mxCell>
                <mxCell id="11" value="- number : String&#10;- type : String" style="text;fillColor=none;align=left;verticalAlign=top;spacingLeft=4;spacingRight=4;overflow=hidden;rotatable=0;points=[[0,0.5],[1,0.5]];portConstraint=eastwest;fontColor=#000000;strokeColor=#0000FF;" parent="10" vertex="1">
                    <mxGeometry y="26" width="135" height="39" as="geometry"/>
                </mxCell>
                <mxCell id="13" value="+ hashcode ( ) : int&#10;+ equals ( ) : boolean&#10;+ toString ( ) : void" style="text;strokeColor=none;fillColor=none;align=left;verticalAlign=top;spacingLeft=4;spacingRight=4;overflow=hidden;rotatable=0;points=[[0,0.5],[1,0.5]];portConstraint=eastwest;fontColor=#000000;" parent="10" vertex="1">
                    <mxGeometry y="65" width="135" height="63" as="geometry"/>
                </mxCell>
                <mxCell id="14" value="Direccion" style="swimlane;fontStyle=1;align=center;verticalAlign=top;childLayout=stackLayout;horizontal=1;startSize=26;horizontalStack=0;resizeParent=1;resizeParentMax=0;resizeLast=0;collapsible=1;marginBottom=0;fontColor=#ffffff;fillColor=#0050ef;strokeColor=#001DBC;" parent="1" vertex="1">
                    <mxGeometry x="736" y="506" width="138" height="222" as="geometry"/>
                </mxCell>
                <mxCell id="15" value="- typo : String&#10;- campo 1 : String&#10;- campo 2 : String&#10;- calle : String&#10;- ciudad : String &#10;- estado : String&#10;- cp : int &#10;- pais : String&#10;" style="text;fillColor=none;align=left;verticalAlign=top;spacingLeft=4;spacingRight=4;overflow=hidden;rotatable=0;points=[[0,0.5],[1,0.5]];portConstraint=eastwest;fontColor=#000000;strokeColor=#0000FF;" parent="14" vertex="1">
                    <mxGeometry y="26" width="138" height="122" as="geometry"/>
                </mxCell>
                <mxCell id="17" value="+ hashcode ( ) : int&#10;+ equals ( ) : boolean&#10;+ toString ( ) : void" style="text;fillColor=none;align=left;verticalAlign=top;spacingLeft=4;spacingRight=4;overflow=hidden;rotatable=0;points=[[0,0.5],[1,0.5]];portConstraint=eastwest;fontColor=#000000;strokeColor=#0000FF;" parent="14" vertex="1">
                    <mxGeometry y="148" width="138" height="74" as="geometry"/>
                </mxCell>
                <mxCell id="20" value="GestorArchivo" style="swimlane;fontStyle=1;align=center;verticalAlign=top;childLayout=stackLayout;horizontal=1;startSize=26;horizontalStack=0;resizeParent=1;resizeParentMax=0;resizeLast=0;collapsible=1;marginBottom=0;fontColor=#ffffff;fillColor=#0050ef;strokeColor=#001DBC;" parent="1" vertex="1">
                    <mxGeometry x="102" y="221" width="203" height="102" as="geometry"/>
                </mxCell>
                <mxCell id="21" value="- lcc : LinkedList&lt;Contacto&gt;" style="text;fillColor=none;align=left;verticalAlign=top;spacingLeft=4;spacingRight=4;overflow=hidden;rotatable=0;points=[[0,0.5],[1,0.5]];portConstraint=eastwest;fontColor=#000000;strokeColor=#0000FF;" parent="20" vertex="1">
                    <mxGeometry y="26" width="203" height="26" as="geometry"/>
                </mxCell>
                <mxCell id="23" value="+ loadFile( ): LinkedList&lt;Contacto&gt;&#10;+ exportFile( Contacto ) : void" style="text;strokeColor=none;fillColor=none;align=left;verticalAlign=top;spacingLeft=4;spacingRight=4;overflow=hidden;rotatable=0;points=[[0,0.5],[1,0.5]];portConstraint=eastwest;fontColor=#000000;" parent="20" vertex="1">
                    <mxGeometry y="52" width="203" height="50" as="geometry"/>
                </mxCell>
                <mxCell id="50" style="rounded=0;orthogonalLoop=1;jettySize=auto;html=1;entryX=0.5;entryY=0;entryDx=0;entryDy=0;endArrow=none;endFill=0;fillColor=#0050ef;strokeColor=#001DBC;startArrow=block;startFill=1;strokeWidth=3;" parent="1" source="29" target="20" edge="1">
                    <mxGeometry relative="1" as="geometry"/>
                </mxCell>
                <mxCell id="52" style="rounded=0;orthogonalLoop=1;jettySize=auto;html=1;entryX=0.5;entryY=0;entryDx=0;entryDy=0;endArrow=none;endFill=0;fillColor=#0050ef;strokeColor=#001DBC;startArrow=block;startFill=1;strokeWidth=3;" parent="1" source="29" target="2" edge="1">
                    <mxGeometry relative="1" as="geometry"/>
                </mxCell>
                <mxCell id="53" style="rounded=0;orthogonalLoop=1;jettySize=auto;html=1;entryX=0.5;entryY=0;entryDx=0;entryDy=0;endArrow=none;endFill=0;fillColor=#0050ef;strokeColor=#001DBC;startArrow=block;startFill=1;strokeWidth=3;" parent="1" source="29" target="37" edge="1">
                    <mxGeometry relative="1" as="geometry"/>
                </mxCell>
                <mxCell id="29" value="tester" style="swimlane;fontStyle=1;align=center;verticalAlign=top;childLayout=stackLayout;horizontal=1;startSize=26;horizontalStack=0;resizeParent=1;resizeParentMax=0;resizeLast=0;collapsible=1;marginBottom=0;fontColor=#ffffff;labelBackgroundColor=none;fillColor=#0050ef;strokeColor=#001DBC;" parent="1" vertex="1">
                    <mxGeometry x="338" y="8" width="180" height="78" as="geometry"/>
                </mxCell>
                <mxCell id="30" value=" " style="text;fillColor=none;align=left;verticalAlign=top;spacingLeft=4;spacingRight=4;overflow=hidden;rotatable=0;points=[[0,0.5],[1,0.5]];portConstraint=eastwest;fontColor=#000000;strokeColor=#0000FF;" parent="29" vertex="1">
                    <mxGeometry y="26" width="180" height="26" as="geometry"/>
                </mxCell>
                <mxCell id="32" value="+ main(args : String[ ] ): void" style="text;strokeColor=none;fillColor=none;align=left;verticalAlign=top;spacingLeft=4;spacingRight=4;overflow=hidden;rotatable=0;points=[[0,0.5],[1,0.5]];portConstraint=eastwest;fontColor=#000000;" parent="29" vertex="1">
                    <mxGeometry y="52" width="180" height="26" as="geometry"/>
                </mxCell>
                <mxCell id="37" value="GestorContacto" style="swimlane;fontStyle=1;align=center;verticalAlign=top;childLayout=stackLayout;horizontal=1;startSize=26;horizontalStack=0;resizeParent=1;resizeParentMax=0;resizeLast=0;collapsible=1;marginBottom=0;fontColor=#ffffff;fillColor=#0050ef;strokeColor=#001DBC;" parent="1" vertex="1">
                    <mxGeometry x="724" y="172" width="300" height="186" as="geometry"/>
                </mxCell>
                <mxCell id="38" value="- listaContactos : LinkedList&lt;Contacto&gt;&#10;- listaDuplicados : LinkedList&lt;Contacto&gt;&#10;- listaIncompletos : LinkedList&lt;Contacto&gt;" style="text;align=left;verticalAlign=top;spacingLeft=4;spacingRight=4;overflow=hidden;rotatable=0;points=[[0,0.5],[1,0.5]];portConstraint=eastwest;fontColor=#000000;strokeColor=#0000FF;" parent="37" vertex="1">
                    <mxGeometry y="26" width="300" height="62" as="geometry"/>
                </mxCell>
                <mxCell id="40" value="+ cContact( c : Contacto) : boolean&#10;+ eContact( c : Contacto) : boolean&#10;+ dContact( c : Contacto ) : boolean&#10;+ searchDup(LinkedList&lt;Contacto&gt; t ) : boolean&#10;+ searchInc( LinkedList&lt;Contacto&gt; t) : boolean" style="text;strokeColor=none;fillColor=none;align=left;verticalAlign=top;spacingLeft=4;spacingRight=4;overflow=hidden;rotatable=0;points=[[0,0.5],[1,0.5]];portConstraint=eastwest;fontColor=#000000;" parent="37" vertex="1">
                    <mxGeometry y="88" width="300" height="98" as="geometry"/>
                </mxCell>
                <mxCell id="41" value="&lt;span style=&quot;background-color: rgb(255 , 255 , 255)&quot;&gt;0...*&lt;/span&gt;" style="endArrow=none;html=1;endSize=12;startArrow=diamond;startSize=14;startFill=1;align=left;verticalAlign=bottom;fontColor=#000000;strokeColor=#001DBC;entryX=0.431;entryY=0;entryDx=0;entryDy=0;entryPerimeter=0;endFill=0;fillColor=#0050ef;strokeWidth=3;rounded=0;exitX=0.16;exitY=1.118;exitDx=0;exitDy=0;exitPerimeter=0;" parent="1" target="10" edge="1" source="5">
                    <mxGeometry x="-0.1747" y="18" relative="1" as="geometry">
                        <mxPoint x="468" y="431" as="sourcePoint"/>
                        <mxPoint x="243" y="497" as="targetPoint"/>
                        <mxPoint as="offset"/>
                    </mxGeometry>
                </mxCell>
                <mxCell id="42" value="&lt;span style=&quot;background-color: rgb(255 , 255 , 255)&quot;&gt;0...*&lt;/span&gt;" style="endArrow=none;html=1;endSize=12;startArrow=diamond;startSize=14;startFill=1;align=left;verticalAlign=bottom;fontColor=#000000;strokeColor=#001DBC;endFill=0;exitX=0.504;exitY=0.996;exitDx=0;exitDy=0;exitPerimeter=0;entryX=0.433;entryY=0.01;entryDx=0;entryDy=0;entryPerimeter=0;fillColor=#0050ef;strokeWidth=3;rounded=0;" parent="1" source="5" target="6" edge="1">
                    <mxGeometry x="0.2728" relative="1" as="geometry">
                        <mxPoint x="300" y="493" as="sourcePoint"/>
                        <mxPoint x="305" y="528" as="targetPoint"/>
                        <mxPoint as="offset"/>
                    </mxGeometry>
                </mxCell>
                <mxCell id="43" value="&lt;span style=&quot;background-color: rgb(255 , 255 , 255)&quot;&gt;0...*&lt;/span&gt;" style="endArrow=none;html=1;endSize=12;startArrow=diamond;startSize=14;startFill=1;align=left;verticalAlign=bottom;fontColor=#000000;strokeColor=#001DBC;exitX=0.734;exitY=1.02;exitDx=0;exitDy=0;exitPerimeter=0;endFill=0;entryX=0.556;entryY=0.012;entryDx=0;entryDy=0;entryPerimeter=0;fillColor=#0050ef;strokeWidth=3;rounded=0;" parent="1" source="5" target="14" edge="1">
                    <mxGeometry x="-0.1469" y="-16" relative="1" as="geometry">
                        <mxPoint x="398" y="491" as="sourcePoint"/>
                        <mxPoint x="509" y="504" as="targetPoint"/>
                        <mxPoint y="1" as="offset"/>
                    </mxGeometry>
                </mxCell>
                <mxCell id="48" value="" style="endArrow=diamond;startArrow=none;endFill=1;startFill=0;html=1;fillColor=#0050ef;strokeColor=#001DBC;entryX=1.013;entryY=0.1;entryDx=0;entryDy=0;entryPerimeter=0;exitX=0;exitY=0.5;exitDx=0;exitDy=0;strokeWidth=3;rounded=0;" parent="1" source="3" target="23" edge="1">
                    <mxGeometry width="160" relative="1" as="geometry">
                        <mxPoint x="431" y="290" as="sourcePoint"/>
                        <mxPoint x="384" y="250" as="targetPoint"/>
                    </mxGeometry>
                </mxCell>
                <mxCell id="104" value="&lt;span style=&quot;color: rgb(0 , 0 , 0) ; text-align: left ; background-color: rgb(255 , 255 , 255)&quot;&gt;0...*&lt;/span&gt;" style="edgeLabel;html=1;align=center;verticalAlign=middle;resizable=0;points=[];" vertex="1" connectable="0" parent="48">
                    <mxGeometry x="-0.4296" relative="1" as="geometry">
                        <mxPoint as="offset"/>
                    </mxGeometry>
                </mxCell>
                <mxCell id="58" value="GestorDB" style="swimlane;fontStyle=1;align=center;verticalAlign=top;childLayout=stackLayout;horizontal=1;startSize=26;horizontalStack=0;resizeParent=1;resizeParentMax=0;resizeLast=0;collapsible=1;marginBottom=0;fillColor=#0050ef;strokeColor=#001DBC;fontColor=#ffffff;" parent="1" vertex="1">
                    <mxGeometry x="1761" y="513.14" width="162" height="124" as="geometry"/>
                </mxCell>
                <mxCell id="59" value="- conn : Connection" style="text;fillColor=none;align=left;verticalAlign=top;spacingLeft=4;spacingRight=4;overflow=hidden;rotatable=0;points=[[0,0.5],[1,0.5]];portConstraint=eastwest;strokeColor=#0000FF;fontColor=#000000;" parent="58" vertex="1">
                    <mxGeometry y="26" width="162" height="36" as="geometry"/>
                </mxCell>
                <mxCell id="61" value="+ conecta( ) : boolean&#10;+ disconecta( ) : boolean&#10;+ getConexion( ) : Connection" style="text;strokeColor=none;fillColor=none;align=left;verticalAlign=top;spacingLeft=4;spacingRight=4;overflow=hidden;rotatable=0;points=[[0,0.5],[1,0.5]];portConstraint=eastwest;fontColor=#000000;" parent="58" vertex="1">
                    <mxGeometry y="62" width="162" height="62" as="geometry"/>
                </mxCell>
                <mxCell id="64" value="N" style="swimlane;fontStyle=1;align=center;verticalAlign=top;childLayout=stackLayout;horizontal=1;startSize=26;horizontalStack=0;resizeParent=1;resizeParentMax=0;resizeLast=0;collapsible=1;marginBottom=0;fillColor=#0050ef;strokeColor=#001DBC;fontColor=#ffffff;" parent="1" vertex="1">
                    <mxGeometry x="120" y="368" width="138" height="164" as="geometry"/>
                </mxCell>
                <mxCell id="65" value="- ln : String&#10;- n : String&#10;- nk : String&#10;-  t : String" style="text;fillColor=none;align=left;verticalAlign=top;spacingLeft=4;spacingRight=4;overflow=hidden;rotatable=0;points=[[0,0.5],[1,0.5]];portConstraint=eastwest;fontColor=#000000;strokeColor=#0000FF;" parent="64" vertex="1">
                    <mxGeometry y="26" width="138" height="69" as="geometry"/>
                </mxCell>
                <mxCell id="67" value="+ hashcode ( ) : int&#10;+ equals ( ) : boolean&#10;+ toString ( ) : void" style="text;fillColor=none;align=left;verticalAlign=top;spacingLeft=4;spacingRight=4;overflow=hidden;rotatable=0;points=[[0,0.5],[1,0.5]];portConstraint=eastwest;fontColor=#000000;" parent="64" vertex="1">
                    <mxGeometry y="95" width="138" height="69" as="geometry"/>
                </mxCell>
                <mxCell id="69" style="rounded=0;orthogonalLoop=1;jettySize=auto;html=1;entryX=0;entryY=0.5;entryDx=0;entryDy=0;fontColor=#000000;fillColor=#0050ef;strokeColor=#001DBC;endArrow=diamond;endFill=1;endSize=12;startSize=14;strokeWidth=3;" parent="1" source="65" target="5" edge="1">
                    <mxGeometry relative="1" as="geometry"/>
                </mxCell>
                <mxCell id="70" value="1" style="text;html=1;align=center;verticalAlign=middle;resizable=0;points=[];autosize=1;strokeColor=none;fontColor=#000000;" parent="1" vertex="1">
                    <mxGeometry x="270" y="420" width="17" height="18" as="geometry"/>
                </mxCell>
                <mxCell id="97" style="rounded=0;orthogonalLoop=1;jettySize=auto;html=1;startArrow=none;startFill=0;endArrow=diamond;endFill=1;strokeColor=#001DBC;strokeWidth=3;" edge="1" parent="1" source="71" target="87">
                    <mxGeometry relative="1" as="geometry"/>
                </mxCell>
                <mxCell id="103" style="rounded=0;orthogonalLoop=1;jettySize=auto;html=1;entryX=0.996;entryY=0.088;entryDx=0;entryDy=0;entryPerimeter=0;startArrow=diamond;startFill=1;endArrow=none;endFill=0;strokeColor=#001DBC;strokeWidth=3;" edge="1" parent="1" source="71" target="58">
                    <mxGeometry relative="1" as="geometry"/>
                </mxCell>
                <mxCell id="71" value="MySQLContactoDAO" style="swimlane;fontStyle=1;align=center;verticalAlign=top;childLayout=stackLayout;horizontal=1;startSize=26;horizontalStack=0;resizeParent=1;resizeParentMax=0;resizeLast=0;collapsible=1;marginBottom=0;fillColor=#0050ef;strokeColor=#001DBC;fontColor=#ffffff;" parent="1" vertex="1">
                    <mxGeometry x="1784" y="26" width="245" height="167" as="geometry"/>
                </mxCell>
                <mxCell id="72" value="- conector : GestorDB" style="text;strokeColor=none;fillColor=none;align=left;verticalAlign=top;spacingLeft=4;spacingRight=4;overflow=hidden;rotatable=0;points=[[0,0.5],[1,0.5]];portConstraint=eastwest;fontColor=#000000;" parent="71" vertex="1">
                    <mxGeometry y="26" width="245" height="26" as="geometry"/>
                </mxCell>
                <mxCell id="74" value="+ insertar ( Contacto a) : void&#10;+ obtener ( String s) : Contacto&#10;+ modificar ( Contacto a) : void&#10;+ eliminar ( Contacto a) : void&#10;+ obtenerTodos( ) : LinkedList&lt;Contacto&gt;&#10;+ obtenerUltimoid ( ) : int&#10;+ convertir ( Resultset rs) : Contacto&#10;" style="text;fillColor=none;align=left;verticalAlign=top;spacingLeft=4;spacingRight=4;overflow=hidden;rotatable=0;points=[[0,0.5],[1,0.5]];portConstraint=eastwest;fontColor=#000000;strokeColor=#001DBC;" parent="71" vertex="1">
                    <mxGeometry y="52" width="245" height="115" as="geometry"/>
                </mxCell>
                <mxCell id="98" style="rounded=0;orthogonalLoop=1;jettySize=auto;html=1;startArrow=none;startFill=0;endArrow=diamond;endFill=1;strokeColor=#001DBC;strokeWidth=3;" edge="1" parent="1" source="75" target="87">
                    <mxGeometry relative="1" as="geometry"/>
                </mxCell>
                <mxCell id="102" style="rounded=0;orthogonalLoop=1;jettySize=auto;html=1;entryX=0.75;entryY=0;entryDx=0;entryDy=0;startArrow=diamond;startFill=1;endArrow=none;endFill=0;strokeColor=#001DBC;strokeWidth=3;" edge="1" parent="1" source="75" target="58">
                    <mxGeometry relative="1" as="geometry"/>
                </mxCell>
                <mxCell id="75" value="MySQLDireccionDAO" style="swimlane;fontStyle=1;align=center;verticalAlign=top;childLayout=stackLayout;horizontal=1;startSize=26;horizontalStack=0;resizeParent=1;resizeParentMax=0;resizeLast=0;collapsible=1;marginBottom=0;fillColor=#0050ef;strokeColor=#001DBC;fontColor=#ffffff;" parent="1" vertex="1">
                    <mxGeometry x="1474" y="172" width="263" height="167" as="geometry"/>
                </mxCell>
                <mxCell id="76" value="- conector : GestorDB" style="text;strokeColor=none;fillColor=none;align=left;verticalAlign=top;spacingLeft=4;spacingRight=4;overflow=hidden;rotatable=0;points=[[0,0.5],[1,0.5]];portConstraint=eastwest;fontColor=#000000;" parent="75" vertex="1">
                    <mxGeometry y="26" width="263" height="26" as="geometry"/>
                </mxCell>
                <mxCell id="78" value="+ insertar ( Direccion a, int id) : void&#10;+ obtener ( String s, int id) : Direccion&#10;+ modificar ( Direccion a, int id) : void&#10;+ eliminar ( String a, int id) : void&#10;+ obtenerTodos(int a ) : LinkedList&lt;Direccion&gt;&#10;+ convertir ( Resultset rs) : Direccion&#10;+ eliminaTodos( int id ) : void&#10;" style="text;fillColor=none;align=left;verticalAlign=top;spacingLeft=4;spacingRight=4;overflow=hidden;rotatable=0;points=[[0,0.5],[1,0.5]];portConstraint=eastwest;fontColor=#000000;strokeColor=#001DBC;" parent="75" vertex="1">
                    <mxGeometry y="52" width="263" height="115" as="geometry"/>
                </mxCell>
                <mxCell id="96" style="rounded=0;orthogonalLoop=1;jettySize=auto;html=1;startArrow=none;startFill=0;endArrow=diamond;endFill=1;strokeColor=#001DBC;strokeWidth=3;" edge="1" parent="1" source="79" target="87">
                    <mxGeometry relative="1" as="geometry"/>
                </mxCell>
                <mxCell id="100" style="rounded=0;orthogonalLoop=1;jettySize=auto;html=1;startArrow=diamond;startFill=1;endArrow=none;endFill=0;strokeColor=#001DBC;strokeWidth=3;" edge="1" parent="1" source="79" target="58">
                    <mxGeometry relative="1" as="geometry"/>
                </mxCell>
                <mxCell id="106" value="1" style="edgeLabel;html=1;align=center;verticalAlign=middle;resizable=0;points=[];labelBackgroundColor=#FFFFFF;fontColor=#000000;" vertex="1" connectable="0" parent="100">
                    <mxGeometry x="-0.3391" y="2" relative="1" as="geometry">
                        <mxPoint x="8" y="-1" as="offset"/>
                    </mxGeometry>
                </mxCell>
                <mxCell id="79" value="MySQLEmailDAO" style="swimlane;fontStyle=1;align=center;verticalAlign=top;childLayout=stackLayout;horizontal=1;startSize=26;horizontalStack=0;resizeParent=1;resizeParentMax=0;resizeLast=0;collapsible=1;marginBottom=0;fillColor=#0050ef;strokeColor=#001DBC;fontColor=#ffffff;" parent="1" vertex="1">
                    <mxGeometry x="1052" y="561" width="263" height="167" as="geometry"/>
                </mxCell>
                <mxCell id="80" value="- conector : GestorDB" style="text;strokeColor=none;fillColor=none;align=left;verticalAlign=top;spacingLeft=4;spacingRight=4;overflow=hidden;rotatable=0;points=[[0,0.5],[1,0.5]];portConstraint=eastwest;fontColor=#000000;" parent="79" vertex="1">
                    <mxGeometry y="26" width="263" height="26" as="geometry"/>
                </mxCell>
                <mxCell id="82" value="+ insertar ( Email a, int id) : void&#10;+ obtener ( String s, int id) : Email&#10;+ modificar ( Email a, int id) : void&#10;+ eliminar ( String a, int id) : void&#10;+ obtenerTodos(int a ) : LinkedList&lt;Email&gt;&#10;+ convertir ( Resultset rs) : Email&#10;+ eliminaTodos( int id ) : void&#10;" style="text;fillColor=none;align=left;verticalAlign=top;spacingLeft=4;spacingRight=4;overflow=hidden;rotatable=0;points=[[0,0.5],[1,0.5]];portConstraint=eastwest;fontColor=#000000;strokeColor=#001DBC;" parent="79" vertex="1">
                    <mxGeometry y="52" width="263" height="115" as="geometry"/>
                </mxCell>
                <mxCell id="99" style="rounded=0;orthogonalLoop=1;jettySize=auto;html=1;startArrow=none;startFill=0;endArrow=diamond;endFill=1;strokeColor=#001DBC;strokeWidth=3;" edge="1" parent="1" source="83" target="87">
                    <mxGeometry relative="1" as="geometry"/>
                </mxCell>
                <mxCell id="101" style="rounded=0;orthogonalLoop=1;jettySize=auto;html=1;entryX=0.25;entryY=0;entryDx=0;entryDy=0;startArrow=diamond;startFill=1;endArrow=none;endFill=0;strokeColor=#001DBC;strokeWidth=3;" edge="1" parent="1" source="83" target="58">
                    <mxGeometry relative="1" as="geometry"/>
                </mxCell>
                <mxCell id="83" value="MySQLTelefonoDAO" style="swimlane;fontStyle=1;align=center;verticalAlign=top;childLayout=stackLayout;horizontal=1;startSize=26;horizontalStack=0;resizeParent=1;resizeParentMax=0;resizeLast=0;collapsible=1;marginBottom=0;fillColor=#0050ef;strokeColor=#001DBC;fontColor=#ffffff;" parent="1" vertex="1">
                    <mxGeometry x="1292" y="361" width="263" height="167" as="geometry"/>
                </mxCell>
                <mxCell id="84" value="- conector : GestorDB" style="text;strokeColor=none;fillColor=none;align=left;verticalAlign=top;spacingLeft=4;spacingRight=4;overflow=hidden;rotatable=0;points=[[0,0.5],[1,0.5]];portConstraint=eastwest;fontColor=#000000;" parent="83" vertex="1">
                    <mxGeometry y="26" width="263" height="26" as="geometry"/>
                </mxCell>
                <mxCell id="86" value="+ insertar ( Email a, int id) : void&#10;+ obtener ( String s, int id) : Email&#10;+ modificar ( Email a, int id) : void&#10;+ eliminar ( String a, int id) : void&#10;+ obtenerTodos(int a ) : LinkedList&lt;Email&gt;&#10;+ convertir ( Resultset rs) : Email&#10;+ eliminaTodos( int id ) : void&#10;" style="text;fillColor=none;align=left;verticalAlign=top;spacingLeft=4;spacingRight=4;overflow=hidden;rotatable=0;points=[[0,0.5],[1,0.5]];portConstraint=eastwest;fontColor=#000000;strokeColor=#001DBC;" parent="83" vertex="1">
                    <mxGeometry y="52" width="263" height="115" as="geometry"/>
                </mxCell>
                <mxCell id="95" style="rounded=0;orthogonalLoop=1;jettySize=auto;html=1;startArrow=none;startFill=0;endArrow=block;endFill=1;strokeColor=#001DBC;strokeWidth=3;" edge="1" parent="1" source="87" target="29">
                    <mxGeometry relative="1" as="geometry"/>
                </mxCell>
                <mxCell id="87" value="GestorDAO" style="swimlane;fontStyle=1;align=center;verticalAlign=top;childLayout=stackLayout;horizontal=1;startSize=26;horizontalStack=0;resizeParent=1;resizeParentMax=0;resizeLast=0;collapsible=1;marginBottom=0;fillColor=#0050ef;strokeColor=#001DBC;fontColor=#ffffff;" parent="1" vertex="1">
                    <mxGeometry x="1146" y="8" width="260" height="164" as="geometry"/>
                </mxCell>
                <mxCell id="88" value="- cdao :MySQLContactoDAO &#10;- tdao : MySQLTelefonoDAO&#10;-ddao : MySQLDireccionDAO&#10;-edao : MySQLEmailDAO" style="text;fillColor=none;align=left;verticalAlign=top;spacingLeft=4;spacingRight=4;overflow=hidden;rotatable=0;points=[[0,0.5],[1,0.5]];portConstraint=eastwest;strokeColor=#0000FF;fontColor=#000000;" parent="87" vertex="1">
                    <mxGeometry y="26" width="260" height="76" as="geometry"/>
                </mxCell>
                <mxCell id="89" value="+ createC ( Contacto ) : void&#10;+deleteC (Contacto ) : void&#10;+ guardaTodos (LinkedList&lt;Contacto&gt; : void" style="text;strokeColor=none;fillColor=none;align=left;verticalAlign=top;spacingLeft=4;spacingRight=4;overflow=hidden;rotatable=0;points=[[0,0.5],[1,0.5]];portConstraint=eastwest;fontColor=#000000;" parent="87" vertex="1">
                    <mxGeometry y="102" width="260" height="62" as="geometry"/>
                </mxCell>
                <mxCell id="94" style="rounded=0;orthogonalLoop=1;jettySize=auto;html=1;entryX=0;entryY=0.5;entryDx=0;entryDy=0;fontColor=#000000;strokeColor=#0000FF;endArrow=diamond;endFill=1;strokeWidth=3;" parent="1" source="3" target="38" edge="1">
                    <mxGeometry relative="1" as="geometry"/>
                </mxCell>
                <mxCell id="105" value="&lt;span style=&quot;color: rgb(0 , 0 , 0) ; text-align: left ; background-color: rgb(255 , 255 , 255)&quot;&gt;0...*&lt;/span&gt;" style="edgeLabel;html=1;align=center;verticalAlign=middle;resizable=0;points=[];" vertex="1" connectable="0" parent="94">
                    <mxGeometry x="-0.3509" y="1" relative="1" as="geometry">
                        <mxPoint x="-1" y="-1" as="offset"/>
                    </mxGeometry>
                </mxCell>
                <mxCell id="110" value="1" style="edgeLabel;html=1;align=center;verticalAlign=middle;resizable=0;points=[];labelBackgroundColor=#FFFFFF;fontColor=#000000;" vertex="1" connectable="0" parent="1">
                    <mxGeometry x="1355" y="627.1379310344826" as="geometry">
                        <mxPoint x="-101" y="-374" as="offset"/>
                    </mxGeometry>
                </mxCell>
                <mxCell id="111" value="1" style="edgeLabel;html=1;align=center;verticalAlign=middle;resizable=0;points=[];labelBackgroundColor=#FFFFFF;fontColor=#000000;" vertex="1" connectable="0" parent="1">
                    <mxGeometry x="1365" y="637.1379310344826" as="geometry">
                        <mxPoint x="-47" y="-291" as="offset"/>
                    </mxGeometry>
                </mxCell>
                <mxCell id="112" value="1" style="edgeLabel;html=1;align=center;verticalAlign=middle;resizable=0;points=[];labelBackgroundColor=#FFFFFF;fontColor=#000000;" vertex="1" connectable="0" parent="1">
                    <mxGeometry x="1375" y="647.1379310344826" as="geometry">
                        <mxPoint x="8" y="-402" as="offset"/>
                    </mxGeometry>
                </mxCell>
                <mxCell id="113" value="1" style="edgeLabel;html=1;align=center;verticalAlign=middle;resizable=0;points=[];labelBackgroundColor=#FFFFFF;fontColor=#000000;" vertex="1" connectable="0" parent="1">
                    <mxGeometry x="1385" y="657.1379310344826" as="geometry">
                        <mxPoint x="161" y="-587" as="offset"/>
                    </mxGeometry>
                </mxCell>
            </root>
        </mxGraphModel>
    </diagram>
</mxfile>